[
  {
    "name": "org.springdoc.core.CacheOrGroupedOpenApiCondition",
    "allDeclaredFields": true,
    "allDeclaredConstructors": true,
    "allDeclaredMethods": true
  },
  {
    "name": "org.springdoc.core.MultipleOpenApiSupportCondition",
    "allDeclaredFields": true,
    "allDeclaredConstructors": true,
    "allDeclaredMethods": true
  },
  {
    "name": "org.springdoc.core.MultipleOpenApiGroupsCondition",
    "allDeclaredFields": true,
    "allDeclaredConstructors": true,
    "allDeclaredMethods": true
  }


]